-----BEGIN PGP SIGNATURE-----

iQEzBAABCAAdFiEElyI52+aGmfUmwGoFPhd4F7obm/oFAmJhbjcACgkQPhd4F7ob
m/oDngf/be5voO3OX8z8ub7vkgbz6Absr4pEOlePFkCkbHkS4aWDcxERcQDUeKc4
RIhujp4OpLSp5W4GLSq5JWEcxNBaF1EUb5hkfULxgzMoK8qiN83Ix7J9Olbcz7Wj
12fDfwaTqhjmPdSgpV8H9TQYLHvs81vEwlPk0WHt14EplV2Stm4W0JqL8t9kf6sd
jhGM4r7PWCIunOUBmXlb4da0h7+fjJLF31YvWUTUSKR2ebs1Gc/jOTsHWgtQZkP+
bpAntR0i7q5kj0MRd0ArXyPIucSZR+U6vHb3l8DN0jKcoiKZQv+yzigQgUKWYHEZ
wjYkBlPm1n4d2ea5HdR8JszpszyurA==
=Xz/u
-----END PGP SIGNATURE-----
